\selectlanguage *{english}
\contentsline {table}{\numberline {2.1}{\ignorespaces Commands to break the line}}{10}{table.caption.18}%
\contentsline {table}{\numberline {2.2}{\ignorespaces Placement specifiers}}{14}{table.caption.24}%
\contentsline {table}{\numberline {2.3}{\ignorespaces Table spec argument}}{16}{table.caption.26}%
\contentsline {table}{\numberline {2.4}{\ignorespaces Table caption appearing in LoT}}{16}{table.caption.28}%
\contentsline {table}{\numberline {2.5}{\ignorespaces The apperances of difference \textbackslash left and \textbackslash right}}{25}{table.caption.35}%
\contentsline {table}{\numberline {A.1}{\ignorespaces Greek Letters}}{30}{table.caption.39}%
\contentsline {table}{\numberline {A.2}{\ignorespaces Binary Operation Symbols}}{30}{table.caption.40}%
\contentsline {table}{\numberline {A.3}{\ignorespaces Relation Symbols}}{31}{table.caption.41}%
\contentsline {table}{\numberline {A.4}{\ignorespaces Punctuation Symbols}}{31}{table.caption.42}%
\contentsline {table}{\numberline {A.5}{\ignorespaces Arrow Symbols}}{31}{table.caption.43}%
\contentsline {table}{\numberline {A.6}{\ignorespaces Miscellaneous Symbols}}{31}{table.caption.44}%
\contentsline {table}{\numberline {A.7}{\ignorespaces Variable-sized Symbols}}{32}{table.caption.45}%
\contentsline {table}{\numberline {A.8}{\ignorespaces Log-like Symbols}}{32}{table.caption.46}%
\contentsline {table}{\numberline {A.9}{\ignorespaces Delimiters}}{32}{table.caption.47}%
\contentsline {table}{\numberline {A.10}{\ignorespaces Large Delimiters}}{32}{table.caption.48}%
\contentsline {table}{\numberline {A.11}{\ignorespaces Math mode accents}}{32}{table.caption.49}%
\contentsline {table}{\numberline {A.12}{\ignorespaces Math constructions}}{32}{table.caption.50}%
\contentsline {table}{\numberline {A.13}{\ignorespaces Font in math mode}}{33}{table.caption.51}%
