\relax 
\providecommand\hyper@newdestlabel[2]{}
\providecommand\HyperFirstAtBeginDocument{\AtBeginDocument}
\HyperFirstAtBeginDocument{\ifx\hyper@anchor\@undefined
\global\let\oldcontentsline\contentsline
\gdef\contentsline#1#2#3#4{\oldcontentsline{#1}{#2}{#3}}
\global\let\oldnewlabel\newlabel
\gdef\newlabel#1#2{\newlabelxx{#1}#2}
\gdef\newlabelxx#1#2#3#4#5#6{\oldnewlabel{#1}{{#2}{#3}}}
\AtEndDocument{\ifx\hyper@anchor\@undefined
\let\contentsline\oldcontentsline
\let\newlabel\oldnewlabel
\fi}
\fi}
\global\let\hyper@last\relax 
\gdef\HyperFirstAtBeginDocument#1{#1}
\providecommand*\HyPL@Entry[1]{}
\HyPL@Entry{0<</S/r>>}
\selectlanguage *{english}
\@writefile{toc}{\selectlanguage *{english}}
\@writefile{lof}{\selectlanguage *{english}}
\@writefile{lot}{\selectlanguage *{english}}
\@writefile{toc}{\renewcommand {\@dotsep }{400}}
\@writefile{toc}{\contentsline {chapter}{ACKNOWLEDGMENTS}{ii}{section*.1}\protected@file@percent }
\@writefile{toc}{\renewcommand {\@dotsep }{0.5}}
\@writefile{toc}{\renewcommand {\@dotsep }{400}}
\@writefile{toc}{\contentsline {chapter}{ABSTRACT}{iii}{section*.2}\protected@file@percent }
\@writefile{toc}{\renewcommand {\@dotsep }{0.5}}
\@writefile{toc}{\thispagestyle {fancy}}
\@writefile{toc}{\fancyhead [L]{}}
\@writefile{toc}{\fancyhead [R]{\thepage }}
\@writefile{toc}{\renewcommand {\@dotsep }{400}}
\@writefile{toc}{\contentsline {chapter}{LIST OF TABLES}{vii}{section*.5}\protected@file@percent }
\@writefile{toc}{\renewcommand {\@dotsep }{0.5}}
\@writefile{lof}{\renewcommand {\@dotsep }{0.5}}
\@writefile{toc}{\renewcommand {\@dotsep }{400}}
\@writefile{toc}{\contentsline {chapter}{LIST OF FIGURES}{viii}{section*.7}\protected@file@percent }
\@writefile{toc}{\renewcommand {\@dotsep }{0.5}}
\@writefile{toc}{\renewcommand {\@dotsep }{400}}
\@writefile{toc}{\contentsline {chapter}{LIST OF LISTINGS}{ix}{section*.9}\protected@file@percent }
\@writefile{toc}{\renewcommand {\@dotsep }{0.5}}
\@writefile{toc}{\vspace  *{0.7\baselineskip }}
\HyPL@Entry{10<</S/D>>}
\@writefile{toc}{\contentsline {chapter}{\nocolonnumberline {\bfseries  1}\bfseries  \MakeUppercase  {How to use \LaTeX  \nobreakspace {} for your thesis?}}{1}{chapter.1}\protected@file@percent }
\newlabel{ch:latex}{{1}{1}{How to use \LaTeX ~ for your thesis?}{chapter.1}{}}
\@writefile{toc}{\contentsline {section}{\nocolonnumberline {1.1}\MakeUppercase  {Whait is \LaTeX  ?}}{1}{section.1.1}\protected@file@percent }
\@writefile{toc}{\contentsline {section}{\nocolonnumberline {1.2}\MakeUppercase  {\TeX  \nobreakspace {} structure}}{1}{section.1.2}\protected@file@percent }
\newlabel{lst:texstruct}{{1.1}{1}{\TeX ~structure}{lstlisting.1.1}{}}
\@writefile{lol}{\contentsline {lstlisting}{\numberline {1.1}\TeX  \nobreakspace {}structure}{1}{lstlisting.1.1}\protected@file@percent }
\citation{web:graphicx}
\citation{web:enumitem}
\citation{web:indentfirst}
\@writefile{toc}{\contentsline {section}{\nocolonnumberline {1.3}\MakeUppercase  {Switching the language}}{2}{section.1.3}\protected@file@percent }
\@writefile{toc}{\contentsline {section}{\nocolonnumberline {1.4}\MakeUppercase  {Generating ICT thesis}}{2}{section.1.4}\protected@file@percent }
\citation{web:fontspec}
\citation{web:xunicode}
\citation{web:xltxtra}
\citation{web:polyglossia}
\citation{web:setspace}
\citation{web:fancybox}
\citation{web:fancyhdr}
\citation{web:lastpage}
\citation{web:listings}
\citation{web:pdflscape}
\citation{web:caption}
\providecommand*\caption@xref[2]{\@setref\relax\@undefined{#1}}
\newlabel{lst:texheader}{{1.2}{3}{\TeX ~file header}{lstlisting.1.2}{}}
\@writefile{lol}{\contentsline {lstlisting}{\numberline {1.2}\TeX  \nobreakspace {}file header}{3}{lstlisting.1.2}\protected@file@percent }
\@writefile{toc}{\contentsline {section}{\nocolonnumberline {1.5}\MakeUppercase  {Using thesis.tex}}{3}{section.1.5}\protected@file@percent }
\newlabel{lst:authvar}{{1.3}{4}{Author's information}{lstlisting.1.3}{}}
\@writefile{lol}{\contentsline {lstlisting}{\numberline {1.3}Author's information}{4}{lstlisting.1.3}\protected@file@percent }
\newlabel{lst:advvar}{{1.4}{5}{Advisor's information}{lstlisting.1.4}{}}
\@writefile{lol}{\contentsline {lstlisting}{\numberline {1.4}Advisor's information}{5}{lstlisting.1.4}\protected@file@percent }
\newlabel{lst:thesisvar}{{1.5}{5}{Thesis's information}{lstlisting.1.5}{}}
\@writefile{lol}{\contentsline {lstlisting}{\numberline {1.5}Thesis's information}{5}{lstlisting.1.5}\protected@file@percent }
\@writefile{toc}{\contentsline {section}{\nocolonnumberline {1.6}\MakeUppercase  {Generating the page styles}}{6}{section.1.6}\protected@file@percent }
\newlabel{lst:pagecmd}{{1.6}{6}{Page generator command}{lstlisting.1.6}{}}
\@writefile{lol}{\contentsline {lstlisting}{\numberline {1.6}Page generator command}{6}{lstlisting.1.6}\protected@file@percent }
\newlabel{lst:inputcmd}{{1.7}{7}{Call the external file via \textbackslash input}{lstlisting.1.7}{}}
\@writefile{lol}{\contentsline {lstlisting}{\numberline {1.7}Call the external file via \textbackslash input}{7}{lstlisting.1.7}\protected@file@percent }
\@writefile{toc}{\contentsline {chapter}{\nocolonnumberline {\bfseries  2}\bfseries  \MakeUppercase  {\LaTeX  's\nobreakspace {}Arsenal}}{8}{chapter.2}\protected@file@percent }
\newlabel{ch:arsenal}{{2}{8}{\LaTeX 's~Arsenal}{chapter.2}{}}
\@writefile{toc}{\contentsline {section}{\nocolonnumberline {2.1}\MakeUppercase  {Sectioning}}{8}{section.2.1}\protected@file@percent }
\newlabel{lst:section}{{2.1}{8}{Sectioning}{lstlisting.2.1}{}}
\@writefile{lol}{\contentsline {lstlisting}{\numberline {2.1}Sectioning}{8}{lstlisting.2.1}\protected@file@percent }
\citation{web:breaklines}
\@writefile{lof}{\contentsline {figure}{\numberline {2.1}{\ignorespaces Section arrangement\relax }}{9}{figure.caption.16}\protected@file@percent }
\newlabel{pic:section}{{2.1}{9}{Section arrangement\relax }{figure.caption.16}{}}
\@writefile{toc}{\contentsline {section}{\nocolonnumberline {2.2}\MakeUppercase  {Paragraph}}{9}{section.2.2}\protected@file@percent }
\newlabel{lst:extparagraph}{{2.2}{9}{Extra spaces between paragraphs}{lstlisting.2.2}{}}
\@writefile{lol}{\contentsline {lstlisting}{\numberline {2.2}Extra spaces between paragraphs}{9}{lstlisting.2.2}\protected@file@percent }
\@writefile{lot}{\contentsline {table}{\numberline {2.1}{\ignorespaces Commands to break the line}}{10}{table.caption.18}\protected@file@percent }
\newlabel{table:breaks}{{2.1}{10}{Commands to break the line}{table.caption.18}{}}
\@writefile{toc}{\contentsline {section}{\nocolonnumberline {2.3}\MakeUppercase  {Paragraph alignment}}{10}{section.2.3}\protected@file@percent }
\@writefile{toc}{\contentsline {subsection}{\nocolonnumberline {2.3.1}\MakeUppercase  {Indentation}}{10}{subsection.2.3.1}\protected@file@percent }
\newlabel{lst:indentspace}{{2.3}{10}{Indent spaces}{lstlisting.2.3}{}}
\@writefile{lol}{\contentsline {lstlisting}{\numberline {2.3}Indent spaces}{10}{lstlisting.2.3}\protected@file@percent }
\@writefile{toc}{\contentsline {subsection}{\nocolonnumberline {2.3.2}\MakeUppercase  {Format alignment}}{11}{subsection.2.3.2}\protected@file@percent }
\newlabel{sec:paralign:txtalign}{{2.3.2}{11}{\LaTeX 's~Arsenal}{subsection.2.3.2}{}}
\@writefile{toc}{\contentsline {section}{\nocolonnumberline {2.4}\MakeUppercase  {Bullets and Numbering}}{11}{section.2.4}\protected@file@percent }
\newlabel{lst:items}{{2.4}{12}{Using itemize and enumerate}{lstlisting.2.4}{}}
\@writefile{lol}{\contentsline {lstlisting}{\numberline {2.4}Using itemize and enumerate}{12}{lstlisting.2.4}\protected@file@percent }
\newlabel{lst:compitems}{{2.5}{13}{Using itemize and enumerate}{lstlisting.2.5}{}}
\@writefile{lol}{\contentsline {lstlisting}{\numberline {2.5}Using itemize and enumerate}{13}{lstlisting.2.5}\protected@file@percent }
\@writefile{toc}{\contentsline {section}{\nocolonnumberline {2.5}\MakeUppercase  {Figure}}{13}{section.2.5}\protected@file@percent }
\newlabel{lst:figstructure}{{2.6}{13}{The figure environment structure}{lstlisting.2.6}{}}
\@writefile{lol}{\contentsline {lstlisting}{\numberline {2.6}The figure environment structure}{13}{lstlisting.2.6}\protected@file@percent }
\@writefile{lof}{\contentsline {figure}{\numberline {2.2}{\ignorespaces Image with 50 asldjfks laskjdflj\% scaling\relax }}{14}{figure.caption.23}\protected@file@percent }
\newlabel{pic:50size}{{2.2}{14}{Image with 50 asldjfks laskjdflj\% scaling\relax }{figure.caption.23}{}}
\@writefile{lof}{\contentsline {figure}{\numberline {2.3}{\ignorespaces Image with 25\% scaling\relax }}{14}{figure.caption.23}\protected@file@percent }
\newlabel{pic:25size}{{2.3}{14}{Image with 25\% scaling\relax }{figure.caption.23}{}}
\@writefile{lot}{\contentsline {table}{\numberline {2.2}{\ignorespaces Placement specifiers}}{14}{table.caption.24}\protected@file@percent }
\newlabel{table:placement}{{2.2}{14}{Placement specifiers}{table.caption.24}{}}
\newlabel{lst:subcap}{{2.7}{14}{Using subcaption package}{lstlisting.2.7}{}}
\@writefile{lol}{\contentsline {lstlisting}{\numberline {2.7}Using subcaption package}{14}{lstlisting.2.7}\protected@file@percent }
\newlabel{pic:subfig:cat1}{{2.4a}{15}{Cat1\relax }{figure.caption.25}{}}
\newlabel{sub@pic:subfig:cat1}{{a}{15}{Cat1\relax }{figure.caption.25}{}}
\newlabel{pic:subfig:cat2}{{2.4b}{15}{Cat2\relax }{figure.caption.25}{}}
\newlabel{sub@pic:subfig:cat2}{{b}{15}{Cat2\relax }{figure.caption.25}{}}
\@writefile{lof}{\contentsline {figure}{\numberline {2.4}{\ignorespaces Subfigure\relax }}{15}{figure.caption.25}\protected@file@percent }
\newlabel{pic:subfig}{{2.4}{15}{Subfigure\relax }{figure.caption.25}{}}
\@writefile{toc}{\contentsline {section}{\nocolonnumberline {2.6}\MakeUppercase  {Table}}{15}{section.2.6}\protected@file@percent }
\@writefile{lot}{\contentsline {table}{\numberline {2.3}{\ignorespaces Table spec argument}}{16}{table.caption.26}\protected@file@percent }
\newlabel{table:tablespec}{{2.3}{16}{Table spec argument}{table.caption.26}{}}
\newlabel{lst:table}{{2.8}{16}{Create the table}{lstlisting.2.8}{}}
\@writefile{lol}{\contentsline {lstlisting}{\numberline {2.8}Create the table}{16}{lstlisting.2.8}\protected@file@percent }
\@writefile{lot}{\contentsline {table}{\numberline {2.4}{\ignorespaces Table caption appearing in LoT}}{16}{table.caption.28}\protected@file@percent }
\newlabel{table:example}{{2.4}{16}{Table caption appearing in LoT}{table.caption.28}{}}
\@writefile{toc}{\contentsline {section}{\nocolonnumberline {2.7}\MakeUppercase  {Page sectioning}}{17}{section.2.7}\protected@file@percent }
\newlabel{lst:minipage}{{2.9}{17}{Minipage example}{lstlisting.2.9}{}}
\@writefile{lol}{\contentsline {lstlisting}{\numberline {2.9}Minipage example}{17}{lstlisting.2.9}\protected@file@percent }
\@writefile{lof}{\contentsline {figure}{\numberline {2.5}{\ignorespaces A cat\relax }}{18}{figure.caption.30}\protected@file@percent }
\newlabel{pic:sidebyside}{{2.5}{18}{A cat\relax }{figure.caption.30}{}}
\@writefile{toc}{\contentsline {section}{\nocolonnumberline {2.8}\MakeUppercase  {Landscape mode}}{18}{section.2.8}\protected@file@percent }
\newlabel{sec:landscape}{{2.8}{18}{\LaTeX 's~Arsenal}{section.2.8}{}}
\newlabel{lst:landscape}{{2.10}{18}{Enable landscape mode}{lstlisting.2.10}{}}
\@writefile{lol}{\contentsline {lstlisting}{\numberline {2.10}Enable landscape mode}{18}{lstlisting.2.10}\protected@file@percent }
\newlabel{page:landscape}{{2.8}{19}{\LaTeX 's~Arsenal}{lstnumber.2.10.6}{}}
\@writefile{toc}{\contentsline {section}{\nocolonnumberline {2.9}\MakeUppercase  {Text style, type, and size}}{20}{section.2.9}\protected@file@percent }
\@writefile{toc}{\contentsline {subsection}{\nocolonnumberline {2.9.1}\MakeUppercase  {Text style}}{20}{subsection.2.9.1}\protected@file@percent }
\newlabel{lst:cmdfont}{{2.11}{20}{Command for setting font environment}{lstlisting.2.11}{}}
\@writefile{lol}{\contentsline {lstlisting}{\numberline {2.11}Command for setting font environment}{20}{lstlisting.2.11}\protected@file@percent }
\@writefile{toc}{\contentsline {subsection}{\nocolonnumberline {2.9.2}\MakeUppercase  {Text size}}{20}{subsection.2.9.2}\protected@file@percent }
\@writefile{toc}{\contentsline {section}{\nocolonnumberline {2.10}\MakeUppercase  {Mathematic Formular}}{21}{section.2.10}\protected@file@percent }
\newlabel{lst:mathenv}{{2.12}{21}{Formular environment declaration}{lstlisting.2.12}{}}
\@writefile{lol}{\contentsline {lstlisting}{\numberline {2.12}Formular environment declaration}{21}{lstlisting.2.12}\protected@file@percent }
\@writefile{toc}{\contentsline {subsection}{\nocolonnumberline {2.10.1}\MakeUppercase  {Numbering the multiple equations}}{22}{subsection.2.10.1}\protected@file@percent }
\newlabel{lst:muleq}{{2.13}{22}{Multiple equations}{lstlisting.2.13}{}}
\@writefile{lol}{\contentsline {lstlisting}{\numberline {2.13}Multiple equations}{22}{lstlisting.2.13}\protected@file@percent }
\newlabel{eq:eq3}{{2.2}{23}{\LaTeX 's~Arsenal}{equation.2.10.2}{}}
\newlabel{eq:eq1}{{2.3}{23}{\LaTeX 's~Arsenal}{equation.2.10.3}{}}
\newlabel{eq:eq2}{{2.4}{23}{\LaTeX 's~Arsenal}{equation.2.10.4}{}}
\@writefile{toc}{\contentsline {subsection}{\nocolonnumberline {2.10.2}\MakeUppercase  {Subscript and Superscript}}{23}{subsection.2.10.2}\protected@file@percent }
\@writefile{toc}{\contentsline {subsection}{\nocolonnumberline {2.10.3}\MakeUppercase  {Spacing in math mode}}{23}{subsection.2.10.3}\protected@file@percent }
\newlabel{lst:spmath}{{2.14}{24}{Create blank space in math environment}{lstlisting.2.14}{}}
\@writefile{lol}{\contentsline {lstlisting}{\numberline {2.14}Create blank space in math environment}{24}{lstlisting.2.14}\protected@file@percent }
\@writefile{toc}{\contentsline {subsection}{\nocolonnumberline {2.10.4}\MakeUppercase  {Adjust delimiter size}}{24}{subsection.2.10.4}\protected@file@percent }
\newlabel{lst:delimiter}{{2.15}{25}{The differences of delimiter size when using and not using the \textbackslash left \textbackslash right command}{lstlisting.2.15}{}}
\@writefile{lol}{\contentsline {lstlisting}{\numberline {2.15}The differences of delimiter size when using and not using the \textbackslash left \textbackslash right command.}{25}{lstlisting.2.15}\protected@file@percent }
\newlabel{eq:leftright}{{2.5}{25}{\LaTeX 's~Arsenal}{equation.2.10.5}{}}
\newlabel{eq:noleftright}{{2.6}{25}{\LaTeX 's~Arsenal}{equation.2.10.6}{}}
\@writefile{lot}{\contentsline {table}{\numberline {2.5}{\ignorespaces The apperances of difference \textbackslash left and \textbackslash right}}{25}{table.caption.35}\protected@file@percent }
\newlabel{table:delimitersize}{{2.5}{25}{The apperances of difference \textbackslash left and \textbackslash right}{table.caption.35}{}}
\@writefile{toc}{\contentsline {section}{\nocolonnumberline {2.11}\MakeUppercase  {Adding footnotes}}{25}{section.2.11}\protected@file@percent }
\newlabel{lst:footnote}{{2.16}{25}{Adding footnote}{lstlisting.2.16}{}}
\@writefile{lol}{\contentsline {lstlisting}{\numberline {2.16}Adding footnote}{25}{lstlisting.2.16}\protected@file@percent }
\@writefile{toc}{\contentsline {chapter}{\nocolonnumberline {\bfseries  3}\bfseries  \MakeUppercase  {Writing bib extension file}}{27}{chapter.3}\protected@file@percent }
\newlabel{chap:bibextension}{{3}{27}{Writing bib extension file}{chapter.3}{}}
\newlabel{lst:ref}{{3.1}{27}{Define the reference format}{lstlisting.3.1}{}}
\@writefile{lol}{\contentsline {lstlisting}{\numberline {3.1}Define the reference format}{27}{lstlisting.3.1}\protected@file@percent }
\citation{web:latexdocumentstructure}
\newlabel{lst:bibtexinfo}{{3.2}{28}{BibTex data}{lstlisting.3.2}{}}
\@writefile{lol}{\contentsline {lstlisting}{\numberline {3.2}BibTex data}{28}{lstlisting.3.2}\protected@file@percent }
\@writefile{toc}{\setcounter {tocdepth}{0}}
\@writefile{toc}{\renewcommand {\@dotsep }{400}}
\@writefile{toc}{\contentsline {chapter}{APPENDIX A}{30}{appendix.1}\protected@file@percent }
\newlabel{apd:mathcmd}{{A}{30}{Writing bib extension file}{appendix.1}{}}
\@writefile{toc}{\contentsline {section}{\nocolonnumberline {A.1}\MakeUppercase  {Symbol}}{30}{section.3.1}\protected@file@percent }
\@writefile{lot}{\contentsline {table}{\numberline {A.1}{\ignorespaces Greek Letters}}{30}{table.caption.39}\protected@file@percent }
\newlabel{table:greek}{{A.1}{30}{Greek Letters}{table.caption.39}{}}
\@writefile{lot}{\contentsline {table}{\numberline {A.2}{\ignorespaces Binary Operation Symbols}}{30}{table.caption.40}\protected@file@percent }
\newlabel{table:bin}{{A.2}{30}{Binary Operation Symbols}{table.caption.40}{}}
\@writefile{lot}{\contentsline {table}{\numberline {A.3}{\ignorespaces Relation Symbols}}{31}{table.caption.41}\protected@file@percent }
\newlabel{table:rel}{{A.3}{31}{Relation Symbols}{table.caption.41}{}}
\@writefile{lot}{\contentsline {table}{\numberline {A.4}{\ignorespaces Punctuation Symbols}}{31}{table.caption.42}\protected@file@percent }
\newlabel{table:punct}{{A.4}{31}{Punctuation Symbols}{table.caption.42}{}}
\@writefile{lot}{\contentsline {table}{\numberline {A.5}{\ignorespaces Arrow Symbols}}{31}{table.caption.43}\protected@file@percent }
\newlabel{table:arrow}{{A.5}{31}{Arrow Symbols}{table.caption.43}{}}
\@writefile{lot}{\contentsline {table}{\numberline {A.6}{\ignorespaces Miscellaneous Symbols}}{31}{table.caption.44}\protected@file@percent }
\newlabel{table:ord}{{A.6}{31}{Miscellaneous Symbols}{table.caption.44}{}}
\@writefile{lot}{\contentsline {table}{\numberline {A.7}{\ignorespaces Variable-sized Symbols}}{32}{table.caption.45}\protected@file@percent }
\newlabel{table:op}{{A.7}{32}{Variable-sized Symbols}{table.caption.45}{}}
\@writefile{lot}{\contentsline {table}{\numberline {A.8}{\ignorespaces Log-like Symbols}}{32}{table.caption.46}\protected@file@percent }
\newlabel{table:log}{{A.8}{32}{Log-like Symbols}{table.caption.46}{}}
\@writefile{lot}{\contentsline {table}{\numberline {A.9}{\ignorespaces Delimiters}}{32}{table.caption.47}\protected@file@percent }
\newlabel{table:dels}{{A.9}{32}{Delimiters}{table.caption.47}{}}
\@writefile{lot}{\contentsline {table}{\numberline {A.10}{\ignorespaces Large Delimiters}}{32}{table.caption.48}\protected@file@percent }
\newlabel{table:ldels}{{A.10}{32}{Large Delimiters}{table.caption.48}{}}
\@writefile{lot}{\contentsline {table}{\numberline {A.11}{\ignorespaces Math mode accents}}{32}{table.caption.49}\protected@file@percent }
\newlabel{table:accent}{{A.11}{32}{Math mode accents}{table.caption.49}{}}
\@writefile{lot}{\contentsline {table}{\numberline {A.12}{\ignorespaces Math constructions}}{32}{table.caption.50}\protected@file@percent }
\newlabel{table:other}{{A.12}{32}{Math constructions}{table.caption.50}{}}
\@writefile{toc}{\contentsline {section}{\nocolonnumberline {A.2}\MakeUppercase  {Font}}{33}{section.3.2}\protected@file@percent }
\@writefile{lot}{\contentsline {table}{\numberline {A.13}{\ignorespaces Font in math mode}}{33}{table.caption.51}\protected@file@percent }
\newlabel{table:font}{{A.13}{33}{Font in math mode}{table.caption.51}{}}
\@writefile{toc}{\setcounter {tocdepth}{0}}
\@writefile{toc}{\renewcommand {\@dotsep }{400}}
\@writefile{toc}{\contentsline {chapter}{APPENDIX B}{34}{appendix.2}\protected@file@percent }
\newlabel{appd:bibtex}{{B}{34}{Writing bib extension file}{appendix.2}{}}
\@writefile{toc}{\contentsline {section}{\nocolonnumberline {B.1}\MakeUppercase  {Article}}{34}{section.3.1}\protected@file@percent }
\newlabel{lst:bibarticle}{{B.1}{34}{Article}{lstlisting.3.1}{}}
\@writefile{lol}{\contentsline {lstlisting}{\numberline {B.1}Article}{34}{lstlisting.3.1}\protected@file@percent }
\@writefile{toc}{\contentsline {section}{\nocolonnumberline {B.2}\MakeUppercase  {Unpublished document}}{34}{section.3.2}\protected@file@percent }
\newlabel{lst:bibunpub}{{B.2}{34}{Unpublished document}{lstlisting.3.2}{}}
\@writefile{lol}{\contentsline {lstlisting}{\numberline {B.2}Unpublished document}{34}{lstlisting.3.2}\protected@file@percent }
\@writefile{toc}{\contentsline {section}{\nocolonnumberline {B.3}\MakeUppercase  {Inproceeding paper}}{34}{section.3.3}\protected@file@percent }
\newlabel{lst:bibinproceeding}{{B.3}{35}{Inproceeding paper}{lstlisting.3.3}{}}
\@writefile{lol}{\contentsline {lstlisting}{\numberline {B.3}Inproceeding paper}{35}{lstlisting.3.3}\protected@file@percent }
\@writefile{toc}{\contentsline {section}{\nocolonnumberline {B.4}\MakeUppercase  {Proceeding paper}}{35}{section.3.4}\protected@file@percent }
\newlabel{lst:bibproceeding}{{B.4}{35}{Proceeding paper}{lstlisting.3.4}{}}
\@writefile{lol}{\contentsline {lstlisting}{\numberline {B.4}Proceeding paper}{35}{lstlisting.3.4}\protected@file@percent }
\@writefile{toc}{\contentsline {section}{\nocolonnumberline {B.5}\MakeUppercase  {Technical report}}{36}{section.3.5}\protected@file@percent }
\newlabel{lst:bibtech}{{B.5}{36}{Technical report}{lstlisting.3.5}{}}
\@writefile{lol}{\contentsline {lstlisting}{\numberline {B.5}Technical report}{36}{lstlisting.3.5}\protected@file@percent }
\@writefile{toc}{\contentsline {section}{\nocolonnumberline {B.6}\MakeUppercase  {Website}}{36}{section.3.6}\protected@file@percent }
\newlabel{lst:bibweb}{{B.6}{36}{Website}{lstlisting.3.6}{}}
\@writefile{lol}{\contentsline {lstlisting}{\numberline {B.6}Website}{36}{lstlisting.3.6}\protected@file@percent }
\@writefile{toc}{\contentsline {section}{\nocolonnumberline {B.7}\MakeUppercase  {PhD. and Master's thesis}}{37}{section.3.7}\protected@file@percent }
\newlabel{lst:bibphd}{{B.7}{37}{PhD. and Master's thesis}{lstlisting.3.7}{}}
\@writefile{lol}{\contentsline {lstlisting}{\numberline {B.7}PhD. and Master's thesis}{37}{lstlisting.3.7}\protected@file@percent }
\@writefile{toc}{\contentsline {section}{\nocolonnumberline {B.8}\MakeUppercase  {Book}}{37}{section.3.8}\protected@file@percent }
\newlabel{lst:bibbook}{{B.8}{37}{Book}{lstlisting.3.8}{}}
\@writefile{lol}{\contentsline {lstlisting}{\numberline {B.8}Book}{37}{lstlisting.3.8}\protected@file@percent }
\@writefile{toc}{\contentsline {section}{\nocolonnumberline {B.9}\MakeUppercase  {Miscelaneous}}{38}{section.3.9}\protected@file@percent }
\newlabel{lst:bibmisc}{{B.9}{38}{Miscellaneous}{lstlisting.3.9}{}}
\@writefile{lol}{\contentsline {lstlisting}{\numberline {B.9}Miscellaneous}{38}{lstlisting.3.9}\protected@file@percent }
\bibstyle{muict.bst}
\bibdata{reference}
\bibcite{web:graphicx}{1}
\bibcite{web:enumitem}{2}
\bibcite{web:indentfirst}{3}
\bibcite{web:fontspec}{4}
\bibcite{web:xunicode}{5}
\bibcite{web:xltxtra}{6}
\bibcite{web:polyglossia}{7}
\bibcite{web:setspace}{8}
\bibcite{web:fancybox}{9}
\bibcite{web:fancyhdr}{10}
\bibcite{web:lastpage}{11}
\@writefile{toc}{\setcounter {tocdepth}{0}}
\@writefile{toc}{\renewcommand {\@dotsep }{400}}
\@writefile{toc}{\contentsline {chapter}{REFERENCES}{39}{lstnumber.3.9.10}\protected@file@percent }
\bibcite{web:listings}{12}
\bibcite{web:pdflscape}{13}
\bibcite{web:caption}{14}
\bibcite{web:breaklines}{15}
\bibcite{web:latexdocumentstructure}{16}
\@writefile{toc}{\setcounter {tocdepth}{0}}
\@writefile{toc}{\renewcommand {\@dotsep }{400}}
\@writefile{toc}{\contentsline {chapter}{BIOGRAPHIES}{41}{chapter*.61}\protected@file@percent }
\newlabel{LastPage}{{}{41}{}{page.41}{}}
\xdef\lastpage@lastpage{41}
\xdef\lastpage@lastpageHy{41}
