\relax 
\providecommand\hyper@newdestlabel[2]{}
\providecommand\HyperFirstAtBeginDocument{\AtBeginDocument}
\HyperFirstAtBeginDocument{\ifx\hyper@anchor\@undefined
\global\let\oldcontentsline\contentsline
\gdef\contentsline#1#2#3#4{\oldcontentsline{#1}{#2}{#3}}
\global\let\oldnewlabel\newlabel
\gdef\newlabel#1#2{\newlabelxx{#1}#2}
\gdef\newlabelxx#1#2#3#4#5#6{\oldnewlabel{#1}{{#2}{#3}}}
\AtEndDocument{\ifx\hyper@anchor\@undefined
\let\contentsline\oldcontentsline
\let\newlabel\oldnewlabel
\fi}
\fi}
\global\let\hyper@last\relax 
\gdef\HyperFirstAtBeginDocument#1{#1}
\providecommand*\HyPL@Entry[1]{}
\HyPL@Entry{0<</S/r>>}
\selectlanguage *{english}
\@writefile{toc}{\selectlanguage *{english}}
\@writefile{lof}{\selectlanguage *{english}}
\@writefile{lot}{\selectlanguage *{english}}
\@writefile{toc}{\renewcommand {\@dotsep }{400}}
\@writefile{toc}{\contentsline {chapter}{ACKNOWLEDGMENTS}{ii}{section*.1}\protected@file@percent }
\@writefile{toc}{\renewcommand {\@dotsep }{0.5}}
\@writefile{toc}{\renewcommand {\@dotsep }{400}}
\@writefile{toc}{\contentsline {chapter}{ABSTRACT}{iii}{section*.2}\protected@file@percent }
\@writefile{toc}{\renewcommand {\@dotsep }{0.5}}
\@writefile{toc}{\thispagestyle {fancy}}
\@writefile{toc}{\fancyhead [L]{}}
\@writefile{toc}{\fancyhead [R]{\thepage }}
\@writefile{toc}{\renewcommand {\@dotsep }{400}}
\@writefile{toc}{\contentsline {chapter}{LIST OF TABLES}{vii}{section*.5}\protected@file@percent }
\@writefile{toc}{\renewcommand {\@dotsep }{0.5}}
\@writefile{lof}{\renewcommand {\@dotsep }{0.5}}
\@writefile{toc}{\renewcommand {\@dotsep }{400}}
\@writefile{toc}{\contentsline {chapter}{LIST OF FIGURES}{viii}{section*.7}\protected@file@percent }
\@writefile{toc}{\renewcommand {\@dotsep }{0.5}}
\@writefile{toc}{\renewcommand {\@dotsep }{400}}
\@writefile{toc}{\contentsline {chapter}{LIST OF LISTINGS}{ix}{section*.9}\protected@file@percent }
\@writefile{toc}{\renewcommand {\@dotsep }{0.5}}
\@writefile{toc}{\vspace  *{0.7\baselineskip }}
\citation{web:graphicx}
\HyPL@Entry{9<</S/D>>}
\@writefile{toc}{\contentsline {chapter}{\nocolonnumberline {\bfseries  1}\bfseries  \MakeUppercase  {Introduction}}{1}{chapter.1}\protected@file@percent }
\newlabel{ch:intro}{{1}{1}{Introduction}{chapter.1}{}}
\@writefile{toc}{\contentsline {section}{\nocolonnumberline {1.1}\MakeUppercase  {Motivation}}{1}{section.1.1}\protected@file@percent }
\newlabel{sec:motivation}{{1.1}{1}{Introduction}{section.1.1}{}}
\@writefile{toc}{\contentsline {section}{\nocolonnumberline {1.2}\MakeUppercase  {Problem Statement}}{1}{section.1.2}\protected@file@percent }
\newlabel{sec:problem}{{1.2}{1}{Introduction}{section.1.2}{}}
\@writefile{toc}{\contentsline {section}{\nocolonnumberline {1.3}\MakeUppercase  {Objective of project}}{1}{section.1.3}\protected@file@percent }
\newlabel{sec:objective}{{1.3}{1}{Introduction}{section.1.3}{}}
\@writefile{toc}{\contentsline {section}{\nocolonnumberline {1.4}\MakeUppercase  {scope of the project}}{1}{section.1.4}\protected@file@percent }
\newlabel{sec:scope}{{1.4}{1}{Introduction}{section.1.4}{}}
\@writefile{toc}{\contentsline {chapter}{\nocolonnumberline {\bfseries  2}\bfseries  \MakeUppercase  {Background}}{2}{chapter.2}\protected@file@percent }
\newlabel{ch:background}{{2}{2}{Background}{chapter.2}{}}
\@writefile{toc}{\contentsline {section}{\nocolonnumberline {2.1}\MakeUppercase  {Your section}}{2}{section.2.1}\protected@file@percent }
\newlabel{sec:section-label}{{2.1}{2}{Background}{section.2.1}{}}
\@writefile{toc}{\contentsline {chapter}{\nocolonnumberline {\bfseries  3}\bfseries  \MakeUppercase  {Analysis and Design}}{3}{chapter.3}\protected@file@percent }
\newlabel{ch:analysis}{{3}{3}{Analysis and Design}{chapter.3}{}}
\@writefile{toc}{\contentsline {section}{\nocolonnumberline {3.1}\MakeUppercase  {System Architecture Overview}}{3}{section.3.1}\protected@file@percent }
\newlabel{sec:architectuer}{{3.1}{3}{Analysis and Design}{section.3.1}{}}
\@writefile{toc}{\contentsline {chapter}{\nocolonnumberline {\bfseries  4}\bfseries  \MakeUppercase  {Implementation}}{4}{chapter.4}\protected@file@percent }
\newlabel{ch:implementation}{{4}{4}{Implementation}{chapter.4}{}}
\@writefile{toc}{\contentsline {section}{\nocolonnumberline {4.1}\MakeUppercase  {System Environment}}{4}{section.4.1}\protected@file@percent }
\newlabel{sec:system}{{4.1}{4}{Implementation}{section.4.1}{}}
\@writefile{toc}{\contentsline {chapter}{\nocolonnumberline {\bfseries  5}\bfseries  \MakeUppercase  {Testing and Evaluation}}{5}{chapter.5}\protected@file@percent }
\newlabel{ch:testing}{{5}{5}{Testing and Evaluation}{chapter.5}{}}
\@writefile{toc}{\contentsline {section}{\nocolonnumberline {5.1}\MakeUppercase  {Your section}}{5}{section.5.1}\protected@file@percent }
\newlabel{sec:section-label}{{5.1}{5}{Testing and Evaluation}{section.5.1}{}}
\@writefile{toc}{\contentsline {chapter}{\nocolonnumberline {\bfseries  6}\bfseries  \MakeUppercase  {Related works}}{6}{chapter.6}\protected@file@percent }
\newlabel{ch:related-works}{{6}{6}{Related works}{chapter.6}{}}
\@writefile{toc}{\contentsline {section}{\nocolonnumberline {6.1}\MakeUppercase  {Your section}}{6}{section.6.1}\protected@file@percent }
\newlabel{sec:section-label}{{6.1}{6}{Related works}{section.6.1}{}}
\@writefile{toc}{\contentsline {chapter}{\nocolonnumberline {\bfseries  7}\bfseries  \MakeUppercase  {Discussion}}{7}{chapter.7}\protected@file@percent }
\newlabel{ch:discussion}{{7}{7}{Discussion}{chapter.7}{}}
\@writefile{toc}{\contentsline {section}{\nocolonnumberline {7.1}\MakeUppercase  {Your section}}{7}{section.7.1}\protected@file@percent }
\newlabel{sec:section-label}{{7.1}{7}{Discussion}{section.7.1}{}}
\@writefile{toc}{\contentsline {chapter}{\nocolonnumberline {\bfseries  8}\bfseries  \MakeUppercase  {Conclusions}}{8}{chapter.8}\protected@file@percent }
\newlabel{ch:related-works}{{8}{8}{Conclusions}{chapter.8}{}}
\@writefile{toc}{\contentsline {section}{\nocolonnumberline {8.1}\MakeUppercase  {Your section}}{8}{section.8.1}\protected@file@percent }
\newlabel{sec:section-label}{{8.1}{8}{Conclusions}{section.8.1}{}}
\@writefile{toc}{\setcounter {tocdepth}{0}}
\@writefile{toc}{\renewcommand {\@dotsep }{400}}
\@writefile{toc}{\contentsline {chapter}{APPENDIX A}{9}{appendix.1}\protected@file@percent }
\newlabel{apd:appendix-label}{{A}{9}{Conclusions}{appendix.1}{}}
\@writefile{toc}{\setcounter {tocdepth}{0}}
\@writefile{toc}{\renewcommand {\@dotsep }{400}}
\@writefile{toc}{\contentsline {chapter}{APPENDIX B}{10}{appendix.2}\protected@file@percent }
\newlabel{apd:appendix-label}{{B}{10}{Conclusions}{appendix.2}{}}
\@writefile{toc}{\setcounter {tocdepth}{0}}
\@writefile{toc}{\renewcommand {\@dotsep }{400}}
\@writefile{toc}{\contentsline {chapter}{APPENDIX C}{11}{appendix.3}\protected@file@percent }
\newlabel{apd:appendix-label}{{C}{11}{Conclusions}{appendix.3}{}}
\bibstyle{muict.bst}
\bibdata{reference}
\@writefile{toc}{\setcounter {tocdepth}{0}}
\@writefile{toc}{\renewcommand {\@dotsep }{400}}
\@writefile{toc}{\contentsline {chapter}{REFERENCES}{12}{appendix.3}\protected@file@percent }
\@writefile{toc}{\setcounter {tocdepth}{0}}
\@writefile{toc}{\renewcommand {\@dotsep }{400}}
\@writefile{toc}{\contentsline {chapter}{BIOGRAPHIES}{13}{appendix.3}\protected@file@percent }
\newlabel{LastPage}{{}{13}{}{page.13}{}}
\xdef\lastpage@lastpage{13}
\xdef\lastpage@lastpageHy{13}
